{
	"gen_config_f" 			: "config.json",
	"gen_input_d" 			: "Input\\Sequences",
	"gen_output_d" 			: "Output",
	"gen_hmmscan_fasta_f" 	: "hmmscan_db.faa",
	"gen_hmm_out_f" 		: "hmmscan_out.tbl",
	"gen_hmm_filt_out_f" 	: "hmmscan_filt_out.tbl",
	"gen_isl_gff_f" 		: "islands.gff",
	"gen_isl_tbl_f" 		: "islands.tbl",
	"gen_isl_with_src_gff_f": "islands_with_src.gff",
	"gen_isl_pfam_gff_f" 	: "islands_after_pfam.gff",
	"gen_isl_pfam_with_src_gff_f" : "islands_after_pfam_with_src.gff",
	"gen_pfam_fasta_f" 		: "pfam_db.faa",
	"gen_pfam_out_f" 		: "pfam_out.tbl",
	"gen_pfam_filt_out_f" 	: "pfam_filt_out.tbl",
	"gen_blast_fasta_f" 	: "blast_db.faa",
	"gen_combined_metagenome_fasta_f" 	: "combined_meta.faa",
	"gen_combined_nonidentified_fasta_f": "combined_nonidentified.faa",
	"gen_common_d" 			: "Common",
	"gen_blast_db_f"		: "blast.db",
	"gen_blast_out_f"		: "blast_out.xml",
	"gen_in_island_CDS_lisf_f"	:"in_island_CDS.lst",
	"gen_unid_out_f"		: "unid_CDS_out.tbl"
}